city,year,weekofyear,total_cases
sj,2008,18,12
sj,2008,19,10
sj,2008,20,9
sj,2008,21,9
sj,2008,22,11
sj,2008,23,14
sj,2008,24,14
sj,2008,25,20
sj,2008,26,16
sj,2008,27,18
sj,2008,28,20
sj,2008,29,27
sj,2008,30,29
sj,2008,31,34
sj,2008,32,42
sj,2008,33,39
sj,2008,34,43
sj,2008,35,48
sj,2008,36,57
sj,2008,37,76
sj,2008,38,37
sj,2008,39,44
sj,2008,40,37
sj,2008,41,45
sj,2008,42,52
sj,2008,43,108
sj,2008,44,85
sj,2008,45,47
sj,2008,46,75
sj,2008,47,76
sj,2008,48,35
sj,2008,49,37
sj,2008,50,38
sj,2008,51,40
sj,2008,52,29
sj,2009,1,27
sj,2009,2,25
sj,2009,3,22
sj,2009,4,26
sj,2009,5,30
sj,2009,6,20
sj,2009,7,24
sj,2009,8,21
sj,2009,9,18
sj,2009,10,13
sj,2009,11,13
sj,2009,12,14
sj,2009,13,14
sj,2009,14,17
sj,2009,15,13
sj,2009,16,9
sj,2009,17,11
sj,2009,18,9
sj,2009,19,11
sj,2009,20,11
sj,2009,21,12
sj,2009,22,10
sj,2009,23,9
sj,2009,24,14
sj,2009,25,12
sj,2009,26,13
sj,2009,27,18
sj,2009,28,25
sj,2009,29,31
sj,2009,30,51
sj,2009,31,41
sj,2009,32,33
sj,2009,33,37
sj,2009,34,39
sj,2009,35,49
sj,2009,36,52
sj,2009,37,40
sj,2009,38,36
sj,2009,39,55
sj,2009,40,47
sj,2009,41,47
sj,2009,42,42
sj,2009,43,53
sj,2009,44,52
sj,2009,45,85
sj,2009,46,71
sj,2009,47,65
sj,2009,48,59
sj,2009,49,68
sj,2009,50,61
sj,2009,51,53
sj,2009,52,33
sj,2010,53,32
sj,2010,1,33
sj,2010,2,29
sj,2010,3,31
sj,2010,4,32
sj,2010,5,16
sj,2010,6,17
sj,2010,7,21
sj,2010,8,20
sj,2010,9,13
sj,2010,10,25
sj,2010,11,17
sj,2010,12,12
sj,2010,13,11
sj,2010,14,13
sj,2010,15,12
sj,2010,16,10
sj,2010,17,20
sj,2010,18,14
sj,2010,19,13
sj,2010,20,15
sj,2010,21,15
sj,2010,22,79
sj,2010,23,54
sj,2010,24,41
sj,2010,25,38
sj,2010,26,82
sj,2010,27,70
sj,2010,28,86
sj,2010,29,78
sj,2010,30,82
sj,2010,31,58
sj,2010,32,54
sj,2010,33,77
sj,2010,34,73
sj,2010,35,50
sj,2010,36,57
sj,2010,37,54
sj,2010,38,41
sj,2010,39,50
sj,2010,40,44
sj,2010,41,61
sj,2010,42,37
sj,2010,43,70
sj,2010,44,71
sj,2010,45,61
sj,2010,46,51
sj,2010,47,40
sj,2010,48,38
sj,2010,49,25
sj,2010,50,50
sj,2010,51,30
sj,2011,52,42
sj,2011,1,28
sj,2011,2,27
sj,2011,3,29
sj,2011,4,25
sj,2011,5,18
sj,2011,6,18
sj,2011,7,22
sj,2011,8,21
sj,2011,9,14
sj,2011,10,18
sj,2011,11,15
sj,2011,12,16
sj,2011,13,18
sj,2011,14,9
sj,2011,15,10
sj,2011,16,13
sj,2011,17,11
sj,2011,18,10
sj,2011,19,11
sj,2011,20,16
sj,2011,21,11
sj,2011,22,21
sj,2011,23,15
sj,2011,24,72
sj,2011,25,55
sj,2011,26,54
sj,2011,27,40
sj,2011,28,42
sj,2011,29,32
sj,2011,30,72
sj,2011,31,42
sj,2011,32,79
sj,2011,33,50
sj,2011,34,79
sj,2011,35,71
sj,2011,36,44
sj,2011,37,48
sj,2011,38,40
sj,2011,39,46
sj,2011,40,40
sj,2011,41,53
sj,2011,42,41
sj,2011,43,86
sj,2011,44,42
sj,2011,45,49
sj,2011,46,61
sj,2011,47,114
sj,2011,48,66
sj,2011,49,48
sj,2011,50,47
sj,2011,51,31
sj,2012,52,42
sj,2012,1,28
sj,2012,2,25
sj,2012,3,21
sj,2012,4,27
sj,2012,5,28
sj,2012,6,22
sj,2012,7,16
sj,2012,8,26
sj,2012,9,12
sj,2012,10,20
sj,2012,11,16
sj,2012,12,15
sj,2012,13,20
sj,2012,14,17
sj,2012,15,6
sj,2012,16,16
sj,2012,17,14
sj,2012,18,8
sj,2012,19,10
sj,2012,20,14
sj,2012,21,11
sj,2012,22,15
sj,2012,23,15
sj,2012,24,19
sj,2012,25,23
sj,2012,26,34
sj,2012,27,24
sj,2012,28,23
sj,2012,29,43
sj,2012,30,57
sj,2012,31,37
sj,2012,32,42
sj,2012,33,52
sj,2012,34,43
sj,2012,35,32
sj,2012,36,45
sj,2012,37,53
sj,2012,38,52
sj,2012,39,52
sj,2012,40,43
sj,2012,41,52
sj,2012,42,44
sj,2012,43,56
sj,2012,44,48
sj,2012,45,52
sj,2012,46,60
sj,2012,47,34
sj,2012,48,71
sj,2012,49,47
sj,2012,50,39
sj,2012,51,41
sj,2013,1,29
sj,2013,2,26
sj,2013,3,21
sj,2013,4,27
sj,2013,5,21
sj,2013,6,22
sj,2013,7,18
sj,2013,8,18
sj,2013,9,12
sj,2013,10,13
sj,2013,11,12
sj,2013,12,16
sj,2013,13,12
sj,2013,14,15
sj,2013,15,9
sj,2013,16,8
sj,2013,17,13
iq,2010,26,4
iq,2010,27,4
iq,2010,28,6
iq,2010,29,3
iq,2010,30,3
iq,2010,31,4
iq,2010,32,3
iq,2010,33,5
iq,2010,34,3
iq,2010,35,6
iq,2010,36,8
iq,2010,37,4
iq,2010,38,10
iq,2010,39,3
iq,2010,40,12
iq,2010,41,8
iq,2010,42,17
iq,2010,43,10
iq,2010,44,8
iq,2010,45,12
iq,2010,46,16
iq,2010,47,12
iq,2010,48,13
iq,2010,49,17
iq,2010,50,7
iq,2010,51,8
iq,2011,52,10
iq,2011,1,8
iq,2011,2,11
iq,2011,3,11
iq,2011,4,10
iq,2011,5,12
iq,2011,6,11
iq,2011,7,7
iq,2011,8,11
iq,2011,9,12
iq,2011,10,8
iq,2011,11,7
iq,2011,12,11
iq,2011,13,10
iq,2011,14,8
iq,2011,15,7
iq,2011,16,7
iq,2011,17,7
iq,2011,18,7
iq,2011,19,3
iq,2011,20,7
iq,2011,21,6
iq,2011,22,8
iq,2011,23,4
iq,2011,24,4
iq,2011,25,4
iq,2011,26,5
iq,2011,27,3
iq,2011,28,3
iq,2011,29,3
iq,2011,30,4
iq,2011,31,2
iq,2011,32,3
iq,2011,33,3
iq,2011,34,3
iq,2011,35,2
iq,2011,36,3
iq,2011,37,7
iq,2011,38,9
iq,2011,39,11
iq,2011,40,7
iq,2011,41,21
iq,2011,42,13
iq,2011,43,11
iq,2011,44,6
iq,2011,45,12
iq,2011,46,7
iq,2011,47,14
iq,2011,48,7
iq,2011,49,23
iq,2011,50,21
iq,2011,51,16
iq,2012,52,18
iq,2012,1,8
iq,2012,2,10
iq,2012,3,10
iq,2012,4,8
iq,2012,5,11
iq,2012,6,7
iq,2012,7,8
iq,2012,8,13
iq,2012,9,7
iq,2012,10,10
iq,2012,11,8
iq,2012,12,8
iq,2012,13,9
iq,2012,14,7
iq,2012,15,7
iq,2012,16,7
iq,2012,17,8
iq,2012,18,6
iq,2012,19,4
iq,2012,20,8
iq,2012,21,5
iq,2012,22,5
iq,2012,23,4
iq,2012,24,5
iq,2012,25,3
iq,2012,26,6
iq,2012,27,4
iq,2012,28,4
iq,2012,29,4
iq,2012,30,2
iq,2012,31,3
iq,2012,32,2
iq,2012,33,3
iq,2012,34,5
iq,2012,35,4
iq,2012,36,3
iq,2012,37,3
iq,2012,38,2
iq,2012,39,9
iq,2012,40,5
iq,2012,41,10
iq,2012,42,10
iq,2012,43,14
iq,2012,44,7
iq,2012,45,8
iq,2012,46,14
iq,2012,47,10
iq,2012,48,8
iq,2012,49,8
iq,2012,50,16
iq,2012,51,15
iq,2013,1,10
iq,2013,2,8
iq,2013,3,8
iq,2013,4,12
iq,2013,5,11
iq,2013,6,12
iq,2013,7,6
iq,2013,8,7
iq,2013,9,8
iq,2013,10,8
iq,2013,11,10
iq,2013,12,8
iq,2013,13,8
iq,2013,14,10
iq,2013,15,5
iq,2013,16,7
iq,2013,17,6
iq,2013,18,4
iq,2013,19,8
iq,2013,20,8
iq,2013,21,6
iq,2013,22,5
iq,2013,23,4
iq,2013,24,4
iq,2013,25,3
iq,2013,26,3
